﻿//sza131005-0205 : 

&НаКлиенте
Процедура ПриОткрытии(Отказ)                                                                    // ПРИ ОТКРЫТИИ
	ОбщийМодульКлиент.СобытиеФормы(ЭтаФорма, 0, Объект.Ссылка, истина);

КонецПроцедуры

&НаКлиенте
Процедура ПриЗакрытии()                                                  // ПРИ ЗАКРЫТИИ
	ОбщийМодульКлиент.СобытиеФормы(ЭтаФорма, 1);
КонецПроцедуры
