﻿//sza131009-2159 : 

&НаКлиенте
Процедура ПриОткрытии(Отказ)                                                                    // ПРИ ОТКРЫТИИ
		ОбщийМодульКлиент.СобытиеФормы(ЭтаФорма, 0);
КонецПроцедуры

&НаКлиенте
Процедура ПриЗакрытии()                                                  // ПРИ ЗАКРЫТИИ
		ОбщийМодульКлиент.СобытиеФормы(ЭтаФорма, 1);
КонецПроцедуры
